{
  "map": {
    "base": {
      "scheme": "http://apiatlas.mos.ru/arcgis/rest/services/Basemaps/egko_gc_graphics/MapServer",
      "satellite": "http://apiatlas.mos.ru/arcgis/rest/services/Basemaps/egip_sat/MapServer"
    },
    "ru": {
      "annotation": "http://apiatlas.mos.ru/arcgis/rest/services/Basemaps/egko_gc_anno_rus/MapServer",
      "hybrid": "http://apiatlas.mos.ru/arcgis/rest/services/Basemaps/egko_gc_hyb_rus/MapServer"
    },
    "en": {
      "annotation": "http://apiatlas.mos.ru/arcgis/rest/services/Basemaps/egko_gc_anno_rus_eng/MapServer",
      "hybrid": "http://apiatlas.mos.ru/arcgis/rest/services/Basemaps/egko_gc_hyb_rus_eng/MapServer"
    },
    "default": {
      "base": "scheme",
      "language": "ru",
      "label": "annotation"
    }
  }
}